Pstat131 Hw6
…
I notice that generally, the higher number of trees tend to do
better. Results for values of mtry vary differently with each number of
trees. Values of min_n around 20 tend to do best across all models

Question 7

What is the roc_auc of your best-performing random
forest model on the folds? Hint: Use collect_metrics()
and arrange().

collect_metrics(tune_res_rf) %>%
  arrange(mean)

## # A tibble: 160 x 9
##     mtry trees min_n .metric .estimator  mean     n std_err .config             
##    <int> <int> <int> <chr>   <chr>      <dbl> <int>   <dbl> <chr>               
##  1     2     2     2 roc_auc hand_till  0.598     5 0.00999 Preprocessor1_Model~
##  2     6     2     2 roc_auc hand_till  0.599     5 0.0305  Preprocessor1_Model~
##  3     3     3     7 roc_auc hand_till  0.612     5 0.0176  Preprocessor1_Model~
##  4     5     2     2 roc_auc hand_till  0.613     5 0.0158  Preprocessor1_Model~
##  5     4     3    18 roc_auc hand_till  0.614     5 0.0148  Preprocessor1_Model~
##  6     2     2    29 roc_auc hand_till  0.615     5 0.0122  Preprocessor1_Model~
##  7     4     2    18 roc_auc hand_till  0.617     5 0.0128  Preprocessor1_Model~
##  8     3     2    12 roc_auc hand_till  0.621     5 0.0155  Preprocessor1_Model~
##  9     2     2    23 roc_auc hand_till  0.623     5 0.0238  Preprocessor1_Model~
## 10     3     2     7 roc_auc hand_till  0.623     5 0.0314  Preprocessor1_Model~
## # ... with 150 more rows
…
